module gitlab.com/chalukyaj/robustconfig

go 1.20

require (
	github.com/pelletier/go-toml/v2 v2.1.0
	github.com/spf13/cobra v1.7.0
)

require (
	github.com/inconshreveable/mousetrap v1.1.0 // indirect
	github.com/spf13/pflag v1.0.5 // indirect
)
